{
    "city": {
        "coord": {
            "lat": 19.4182,
            "lon": -99.163
        },
        "country": "MX",
        "id": 7280714,
        "name": "Colonia Roma",
        "sunrise": 1593950601,
        "sunset": 1593998338,
        "timezone": -18000
    },
    "cnt": 40,
    "cod": "200",
    "list": [
        {
            "clouds": {
                "all": 80
            },
            "dt": 1593993600,
            "dt_txt": "2020-07-06 00:00:00",
            "main": {
                "feels_like": 21.7,
                "grnd_level": 785,
                "humidity": 47,
                "pressure": 1018,
                "sea_level": 1013,
                "temp": 22.8,
                "temp_kf": 2.31,
                "temp_max": 22.8,
                "temp_min": 20.49
            },
            "rain": {
                "3h": 4.93
            },
            "sys": {
                "pod": "d"
            },
            "weather": [
                {
                    "description": "moderate rain",
                    "icon": "10d",
                    "id": 501,
                    "main": "Rain"
                }
            ],
            "wind": {
                "deg": 346,
                "speed": 1.99
            }
        },
        {
            "clouds": {
                "all": 95
            },
            "dt": 1594004400,
            "dt_txt": "2020-07-06 03:00:00",
            "main": {
                "feels_like": 17.5,
                "grnd_level": 786,
                "humidity": 59,
                "pressure": 1018,
                "sea_level": 1017,
                "temp": 18.92,
                "temp_kf": 1.67,
                "temp_max": 18.92,
                "temp_min": 17.25
            },
            "rain": {
                "3h": 12.17
            },
            "sys": {
                "pod": "n"
            },
            "weather": [
                {
                    "description": "heavy intensity rain",
                    "icon": "10n",
                    "id": 502,
                    "main": "Rain"
                }
            ],
            "wind": {
                "deg": 186,
                "speed": 2.38
            }
        },
        {
            "clouds": {
                "all": 98
            },
            "dt": 1594015200,
            "dt_txt": "2020-07-06 06:00:00",
            "main": {
                "feels_like": 17.58,
                "grnd_level": 786,
                "humidity": 59,
                "pressure": 1017,
                "sea_level": 1017,
                "temp": 18.16,
                "temp_kf": 0.47,
                "temp_max": 18.16,
                "temp_min": 17.69
            },
            "rain": {
                "3h": 1.94
            },
            "sys": {
                "pod": "n"
            },
            "weather": [
                {
                    "description": "light rain",
                    "icon": "10n",
                    "id": 500,
                    "main": "Rain"
                }
            ],
            "wind": {
                "deg": 178,
                "speed": 0.9
            }
        },
        {
            "clouds": {
                "all": 82
            },
            "dt": 1594026000,
            "dt_txt": "2020-07-06 09:00:00",
            "main": {
                "feels_like": 17.1,
                "grnd_level": 785,
                "humidity": 60,
                "pressure": 1015,
                "sea_level": 1015,
                "temp": 17.34,
                "temp_kf": 0.06,
                "temp_max": 17.34,
                "temp_min": 17.28
            },
            "sys": {
                "pod": "n"
            },
            "weather": [
                {
                    "description": "broken clouds",
                    "icon": "04n",
                    "id": 803,
                    "main": "Clouds"
                }
            ],
            "wind": {
                "deg": 1,
                "speed": 0.22
            }
        },
        {
            "clouds": {
                "all": 91
            },
            "dt": 1594036800,
            "dt_txt": "2020-07-06 12:00:00",
            "main": {
                "feels_like": 15.96,
                "grnd_level": 785,
                "humidity": 63,
                "pressure": 1016,
                "sea_level": 1016,
                "temp": 16.74,
                "temp_kf": 0,
                "temp_max": 16.74,
                "temp_min": 16.74
            },
            "sys": {
                "pod": "n"
            },
            "weather": [
                {
                    "description": "overcast clouds",
                    "icon": "04n",
                    "id": 804,
                    "main": "Clouds"
                }
            ],
            "wind": {
                "deg": 37,
                "speed": 1.05
            }
        },
        {
            "clouds": {
                "all": 90
            },
            "dt": 1594047600,
            "dt_txt": "2020-07-06 15:00:00",
            "main": {
                "feels_like": 18.04,
                "grnd_level": 787,
                "humidity": 54,
                "pressure": 1017,
                "sea_level": 1017,
                "temp": 19.12,
                "temp_kf": 0,
                "temp_max": 19.12,
                "temp_min": 19.12
            },
            "sys": {
                "pod": "d"
            },
            "weather": [
                {
                    "description": "overcast clouds",
                    "icon": "04d",
                    "id": 804,
                    "main": "Clouds"
                }
            ],
            "wind": {
                "deg": 41,
                "speed": 1.45
            }
        },
        {
            "clouds": {
                "all": 94
            },
            "dt": 1594058400,
            "dt_txt": "2020-07-06 18:00:00",
            "main": {
                "feels_like": 22.84,
                "grnd_level": 789,
                "humidity": 38,
                "pressure": 1015,
                "sea_level": 1015,
                "temp": 24.08,
                "temp_kf": 0,
                "temp_max": 24.08,
                "temp_min": 24.08
            },
            "rain": {
                "3h": 0.51
            },
            "sys": {
                "pod": "d"
            },
            "weather": [
                {
                    "description": "light rain",
                    "icon": "10d",
                    "id": 500,
                    "main": "Rain"
                }
            ],
            "wind": {
                "deg": 60,
                "speed": 1.41
            }
        },
        {
            "clouds": {
                "all": 100
            },
            "dt": 1594069200,
            "dt_txt": "2020-07-06 21:00:00",
            "main": {
                "feels_like": 23.69,
                "grnd_level": 788,
                "humidity": 36,
                "pressure": 1012,
                "sea_level": 1012,
                "temp": 24.81,
                "temp_kf": 0,
                "temp_max": 24.81,
                "temp_min": 24.81
            },
            "rain": {
                "3h": 0.81
            },
            "sys": {
                "pod": "d"
            },
            "weather": [
                {
                    "description": "light rain",
                    "icon": "10d",
                    "id": 500,
                    "main": "Rain"
                }
            ],
            "wind": {
                "deg": 92,
                "speed": 1.18
            }
        },
        {
            "clouds": {
                "all": 100
            },
            "dt": 1594080000,
            "dt_txt": "2020-07-07 00:00:00",
            "main": {
                "feels_like": 18.67,
                "grnd_level": 784,
                "humidity": 60,
                "pressure": 1012,
                "sea_level": 1012,
                "temp": 19.85,
                "temp_kf": 0,
                "temp_max": 19.85,
                "temp_min": 19.85
            },
            "rain": {
                "3h": 4.6
            },
            "sys": {
                "pod": "d"
            },
            "weather": [
                {
                    "description": "moderate rain",
                    "icon": "10d",
                    "id": 501,
                    "main": "Rain"
                }
            ],
            "wind": {
                "deg": 247,
                "speed": 2.51
            }
        },
        {
            "clouds": {
                "all": 100
            },
            "dt": 1594090800,
            "dt_txt": "2020-07-07 03:00:00",
            "main": {
                "feels_like": 14.09,
                "grnd_level": 785,
                "humidity": 70,
                "pressure": 1016,
                "sea_level": 1016,
                "temp": 16.06,
                "temp_kf": 0,
                "temp_max": 16.06,
                "temp_min": 16.06
            },
            "rain": {
                "3h": 17.88
            },
            "sys": {
                "pod": "n"
            },
            "weather": [
                {
                    "description": "heavy intensity rain",
                    "icon": "10n",
                    "id": 502,
                    "main": "Rain"
                }
            ],
            "wind": {
                "deg": 239,
                "speed": 3.11
            }
        },
        {
            "clouds": {
                "all": 100
            },
            "dt": 1594101600,
            "dt_txt": "2020-07-07 06:00:00",
            "main": {
                "feels_like": 15.98,
                "grnd_level": 787,
                "humidity": 64,
                "pressure": 1018,
                "sea_level": 1018,
                "temp": 17.2,
                "temp_kf": 0,
                "temp_max": 17.2,
                "temp_min": 17.2
            },
            "rain": {
                "3h": 3.55
            },
            "sys": {
                "pod": "n"
            },
            "weather": [
                {
                    "description": "moderate rain",
                    "icon": "10n",
                    "id": 501,
                    "main": "Rain"
                }
            ],
            "wind": {
                "deg": 188,
                "speed": 1.94
            }
        },
        {
            "clouds": {
                "all": 100
            },
            "dt": 1594112400,
            "dt_txt": "2020-07-07 09:00:00",
            "main": {
                "feels_like": 16.2,
                "grnd_level": 786,
                "humidity": 64,
                "pressure": 1017,
                "sea_level": 1017,
                "temp": 17.36,
                "temp_kf": 0,
                "temp_max": 17.36,
                "temp_min": 17.36
            },
            "rain": {
                "3h": 1.04
            },
            "sys": {
                "pod": "n"
            },
            "weather": [
                {
                    "description": "light rain",
                    "icon": "10n",
                    "id": 500,
                    "main": "Rain"
                }
            ],
            "wind": {
                "deg": 181,
                "speed": 1.91
            }
        },
        {
            "clouds": {
                "all": 99
            },
            "dt": 1594123200,
            "dt_txt": "2020-07-07 12:00:00",
            "main": {
                "feels_like": 15.6,
                "grnd_level": 786,
                "humidity": 66,
                "pressure": 1017,
                "sea_level": 1017,
                "temp": 16.63,
                "temp_kf": 0,
                "temp_max": 16.63,
                "temp_min": 16.63
            },
            "rain": {
                "3h": 0.34
            },
            "sys": {
                "pod": "n"
            },
            "weather": [
                {
                    "description": "light rain",
                    "icon": "10n",
                    "id": 500,
                    "main": "Rain"
                }
            ],
            "wind": {
                "deg": 163,
                "speed": 1.64
            }
        },
        {
            "clouds": {
                "all": 98
            },
            "dt": 1594134000,
            "dt_txt": "2020-07-07 15:00:00",
            "main": {
                "feels_like": 18.89,
                "grnd_level": 789,
                "humidity": 53,
                "pressure": 1018,
                "sea_level": 1018,
                "temp": 19.58,
                "temp_kf": 0,
                "temp_max": 19.58,
                "temp_min": 19.58
            },
            "rain": {
                "3h": 0.12
            },
            "sys": {
                "pod": "d"
            },
            "weather": [
                {
                    "description": "light rain",
                    "icon": "10d",
                    "id": 500,
                    "main": "Rain"
                }
            ],
            "wind": {
                "deg": 201,
                "speed": 0.95
            }
        },
        {
            "clouds": {
                "all": 87
            },
            "dt": 1594144800,
            "dt_txt": "2020-07-07 18:00:00",
            "main": {
                "feels_like": 23.76,
                "grnd_level": 790,
                "humidity": 36,
                "pressure": 1015,
                "sea_level": 1015,
                "temp": 24.81,
                "temp_kf": 0,
                "temp_max": 24.81,
                "temp_min": 24.81
            },
            "rain": {
                "3h": 0.59
            },
            "sys": {
                "pod": "d"
            },
            "weather": [
                {
                    "description": "light rain",
                    "icon": "10d",
                    "id": 500,
                    "main": "Rain"
                }
            ],
            "wind": {
                "deg": 138,
                "speed": 1.09
            }
        },
        {
            "clouds": {
                "all": 95
            },
            "dt": 1594155600,
            "dt_txt": "2020-07-07 21:00:00",
            "main": {
                "feels_like": 24.01,
                "grnd_level": 788,
                "humidity": 34,
                "pressure": 1013,
                "sea_level": 1013,
                "temp": 25.06,
                "temp_kf": 0,
                "temp_max": 25.06,
                "temp_min": 25.06
            },
            "rain": {
                "3h": 0.38
            },
            "sys": {
                "pod": "d"
            },
            "weather": [
                {
                    "description": "light rain",
                    "icon": "10d",
                    "id": 500,
                    "main": "Rain"
                }
            ],
            "wind": {
                "deg": 144,
                "speed": 0.87
            }
        },
        {
            "clouds": {
                "all": 97
            },
            "dt": 1594166400,
            "dt_txt": "2020-07-08 00:00:00",
            "main": {
                "feels_like": 20.25,
                "grnd_level": 786,
                "humidity": 51,
                "pressure": 1013,
                "sea_level": 1013,
                "temp": 21.01,
                "temp_kf": 0,
                "temp_max": 21.01,
                "temp_min": 21.01
            },
            "rain": {
                "3h": 2.55
            },
            "sys": {
                "pod": "d"
            },
            "weather": [
                {
                    "description": "light rain",
                    "icon": "10d",
                    "id": 500,
                    "main": "Rain"
                }
            ],
            "wind": {
                "deg": 251,
                "speed": 1.34
            }
        },
        {
            "clouds": {
                "all": 100
            },
            "dt": 1594177200,
            "dt_txt": "2020-07-08 03:00:00",
            "main": {
                "feels_like": 16.23,
                "grnd_level": 787,
                "humidity": 61,
                "pressure": 1017,
                "sea_level": 1017,
                "temp": 17.69,
                "temp_kf": 0,
                "temp_max": 17.69,
                "temp_min": 17.69
            },
            "rain": {
                "3h": 4.81
            },
            "sys": {
                "pod": "n"
            },
            "weather": [
                {
                    "description": "moderate rain",
                    "icon": "10n",
                    "id": 501,
                    "main": "Rain"
                }
            ],
            "wind": {
                "deg": 307,
                "speed": 2.18
            }
        },
        {
            "clouds": {
                "all": 100
            },
            "dt": 1594188000,
            "dt_txt": "2020-07-08 06:00:00",
            "main": {
                "feels_like": 15.64,
                "grnd_level": 787,
                "humidity": 66,
                "pressure": 1018,
                "sea_level": 1018,
                "temp": 16.88,
                "temp_kf": 0,
                "temp_max": 16.88,
                "temp_min": 16.88
            },
            "rain": {
                "3h": 2.2
            },
            "sys": {
                "pod": "n"
            },
            "weather": [
                {
                    "description": "light rain",
                    "icon": "10n",
                    "id": 500,
                    "main": "Rain"
                }
            ],
            "wind": {
                "deg": 72,
                "speed": 2.03
            }
        },
        {
            "clouds": {
                "all": 100
            },
            "dt": 1594198800,
            "dt_txt": "2020-07-08 09:00:00",
            "main": {
                "feels_like": 14.18,
                "grnd_level": 786,
                "humidity": 64,
                "pressure": 1017,
                "sea_level": 1017,
                "temp": 16.19,
                "temp_kf": 0,
                "temp_max": 16.19,
                "temp_min": 16.19
            },
            "rain": {
                "3h": 3.75
            },
            "sys": {
                "pod": "n"
            },
            "weather": [
                {
                    "description": "moderate rain",
                    "icon": "10n",
                    "id": 501,
                    "main": "Rain"
                }
            ],
            "wind": {
                "deg": 183,
                "speed": 2.7
            }
        },
        {
            "clouds": {
                "all": 100
            },
            "dt": 1594209600,
            "dt_txt": "2020-07-08 12:00:00",
            "main": {
                "feels_like": 13.71,
                "grnd_level": 785,
                "humidity": 59,
                "pressure": 1017,
                "sea_level": 1017,
                "temp": 16.1,
                "temp_kf": 0,
                "temp_max": 16.1,
                "temp_min": 16.1
            },
            "rain": {
                "3h": 1.42
            },
            "sys": {
                "pod": "n"
            },
            "weather": [
                {
                    "description": "light rain",
                    "icon": "10n",
                    "id": 500,
                    "main": "Rain"
                }
            ],
            "wind": {
                "deg": 179,
                "speed": 2.78
            }
        },
        {
            "clouds": {
                "all": 100
            },
            "dt": 1594220400,
            "dt_txt": "2020-07-08 15:00:00",
            "main": {
                "feels_like": 15.49,
                "grnd_level": 787,
                "humidity": 47,
                "pressure": 1018,
                "sea_level": 1018,
                "temp": 17.83,
                "temp_kf": 0,
                "temp_max": 17.83,
                "temp_min": 17.83
            },
            "rain": {
                "3h": 0.3
            },
            "sys": {
                "pod": "d"
            },
            "weather": [
                {
                    "description": "light rain",
                    "icon": "10d",
                    "id": 500,
                    "main": "Rain"
                }
            ],
            "wind": {
                "deg": 164,
                "speed": 2.14
            }
        },
        {
            "clouds": {
                "all": 100
            },
            "dt": 1594231200,
            "dt_txt": "2020-07-08 18:00:00",
            "main": {
                "feels_like": 19.85,
                "grnd_level": 789,
                "humidity": 29,
                "pressure": 1016,
                "sea_level": 1016,
                "temp": 23.81,
                "temp_kf": 0,
                "temp_max": 23.81,
                "temp_min": 23.81
            },
            "sys": {
                "pod": "d"
            },
            "weather": [
                {
                    "description": "overcast clouds",
                    "icon": "04d",
                    "id": 804,
                    "main": "Clouds"
                }
            ],
            "wind": {
                "deg": 147,
                "speed": 3.96
            }
        },
        {
            "clouds": {
                "all": 95
            },
            "dt": 1594242000,
            "dt_txt": "2020-07-08 21:00:00",
            "main": {
                "feels_like": 21.84,
                "grnd_level": 788,
                "humidity": 27,
                "pressure": 1012,
                "sea_level": 1012,
                "temp": 25.8,
                "temp_kf": 0,
                "temp_max": 25.8,
                "temp_min": 25.8
            },
            "sys": {
                "pod": "d"
            },
            "weather": [
                {
                    "description": "overcast clouds",
                    "icon": "04d",
                    "id": 804,
                    "main": "Clouds"
                }
            ],
            "wind": {
                "deg": 144,
                "speed": 4.16
            }
        },
        {
            "clouds": {
                "all": 97
            },
            "dt": 1594252800,
            "dt_txt": "2020-07-09 00:00:00",
            "main": {
                "feels_like": 19.73,
                "grnd_level": 786,
                "humidity": 37,
                "pressure": 1013,
                "sea_level": 1013,
                "temp": 22.49,
                "temp_kf": 0,
                "temp_max": 22.49,
                "temp_min": 22.49
            },
            "sys": {
                "pod": "d"
            },
            "weather": [
                {
                    "description": "overcast clouds",
                    "icon": "04d",
                    "id": 804,
                    "main": "Clouds"
                }
            ],
            "wind": {
                "deg": 117,
                "speed": 2.96
            }
        },
        {
            "clouds": {
                "all": 95
            },
            "dt": 1594263600,
            "dt_txt": "2020-07-09 03:00:00",
            "main": {
                "feels_like": 17.59,
                "grnd_level": 787,
                "humidity": 41,
                "pressure": 1016,
                "sea_level": 1016,
                "temp": 19.72,
                "temp_kf": 0,
                "temp_max": 19.72,
                "temp_min": 19.72
            },
            "sys": {
                "pod": "n"
            },
            "weather": [
                {
                    "description": "overcast clouds",
                    "icon": "04n",
                    "id": 804,
                    "main": "Clouds"
                }
            ],
            "wind": {
                "deg": 149,
                "speed": 1.76
            }
        },
        {
            "clouds": {
                "all": 97
            },
            "dt": 1594274400,
            "dt_txt": "2020-07-09 06:00:00",
            "main": {
                "feels_like": 16.31,
                "grnd_level": 788,
                "humidity": 43,
                "pressure": 1018,
                "sea_level": 1018,
                "temp": 18.55,
                "temp_kf": 0,
                "temp_max": 18.55,
                "temp_min": 18.55
            },
            "sys": {
                "pod": "n"
            },
            "weather": [
                {
                    "description": "overcast clouds",
                    "icon": "04n",
                    "id": 804,
                    "main": "Clouds"
                }
            ],
            "wind": {
                "deg": 161,
                "speed": 1.8
            }
        },
        {
            "clouds": {
                "all": 100
            },
            "dt": 1594285200,
            "dt_txt": "2020-07-09 09:00:00",
            "main": {
                "feels_like": 15.32,
                "grnd_level": 786,
                "humidity": 50,
                "pressure": 1016,
                "sea_level": 1016,
                "temp": 17.48,
                "temp_kf": 0,
                "temp_max": 17.48,
                "temp_min": 17.48
            },
            "sys": {
                "pod": "n"
            },
            "weather": [
                {
                    "description": "overcast clouds",
                    "icon": "04n",
                    "id": 804,
                    "main": "Clouds"
                }
            ],
            "wind": {
                "deg": 209,
                "speed": 2.07
            }
        },
        {
            "clouds": {
                "all": 100
            },
            "dt": 1594296000,
            "dt_txt": "2020-07-09 12:00:00",
            "main": {
                "feels_like": 16.42,
                "grnd_level": 786,
                "humidity": 49,
                "pressure": 1016,
                "sea_level": 1016,
                "temp": 17.62,
                "temp_kf": 0,
                "temp_max": 17.62,
                "temp_min": 17.62
            },
            "sys": {
                "pod": "n"
            },
            "weather": [
                {
                    "description": "overcast clouds",
                    "icon": "04n",
                    "id": 804,
                    "main": "Clouds"
                }
            ],
            "wind": {
                "deg": 354,
                "speed": 0.64
            }
        },
        {
            "clouds": {
                "all": 100
            },
            "dt": 1594306800,
            "dt_txt": "2020-07-09 15:00:00",
            "main": {
                "feels_like": 17.44,
                "grnd_level": 788,
                "humidity": 45,
                "pressure": 1017,
                "sea_level": 1017,
                "temp": 19.58,
                "temp_kf": 0,
                "temp_max": 19.58,
                "temp_min": 19.58
            },
            "sys": {
                "pod": "d"
            },
            "weather": [
                {
                    "description": "overcast clouds",
                    "icon": "04d",
                    "id": 804,
                    "main": "Clouds"
                }
            ],
            "wind": {
                "deg": 20,
                "speed": 2.17
            }
        },
        {
            "clouds": {
                "all": 100
            },
            "dt": 1594317600,
            "dt_txt": "2020-07-09 18:00:00",
            "main": {
                "feels_like": 21.43,
                "grnd_level": 789,
                "humidity": 33,
                "pressure": 1015,
                "sea_level": 1015,
                "temp": 23.78,
                "temp_kf": 0,
                "temp_max": 23.78,
                "temp_min": 23.78
            },
            "rain": {
                "3h": 0.15
            },
            "sys": {
                "pod": "d"
            },
            "weather": [
                {
                    "description": "light rain",
                    "icon": "10d",
                    "id": 500,
                    "main": "Rain"
                }
            ],
            "wind": {
                "deg": 67,
                "speed": 2.21
            }
        },
        {
            "clouds": {
                "all": 100
            },
            "dt": 1594328400,
            "dt_txt": "2020-07-09 21:00:00",
            "main": {
                "feels_like": 21.6,
                "grnd_level": 787,
                "humidity": 32,
                "pressure": 1013,
                "sea_level": 1013,
                "temp": 23.88,
                "temp_kf": 0,
                "temp_max": 23.88,
                "temp_min": 23.88
            },
            "rain": {
                "3h": 0.36
            },
            "sys": {
                "pod": "d"
            },
            "weather": [
                {
                    "description": "light rain",
                    "icon": "10d",
                    "id": 500,
                    "main": "Rain"
                }
            ],
            "wind": {
                "deg": 91,
                "speed": 2
            }
        },
        {
            "clouds": {
                "all": 100
            },
            "dt": 1594339200,
            "dt_txt": "2020-07-10 00:00:00",
            "main": {
                "feels_like": 16.5,
                "grnd_level": 785,
                "humidity": 60,
                "pressure": 1014,
                "sea_level": 1014,
                "temp": 18.22,
                "temp_kf": 0,
                "temp_max": 18.22,
                "temp_min": 18.22
            },
            "rain": {
                "3h": 3.13
            },
            "sys": {
                "pod": "d"
            },
            "weather": [
                {
                    "description": "moderate rain",
                    "icon": "10d",
                    "id": 501,
                    "main": "Rain"
                }
            ],
            "wind": {
                "deg": 341,
                "speed": 2.65
            }
        },
        {
            "clouds": {
                "all": 100
            },
            "dt": 1594350000,
            "dt_txt": "2020-07-10 03:00:00",
            "main": {
                "feels_like": 14.26,
                "grnd_level": 786,
                "humidity": 71,
                "pressure": 1018,
                "sea_level": 1018,
                "temp": 15.71,
                "temp_kf": 0,
                "temp_max": 15.71,
                "temp_min": 15.71
            },
            "rain": {
                "3h": 6.72
            },
            "sys": {
                "pod": "n"
            },
            "weather": [
                {
                    "description": "moderate rain",
                    "icon": "10n",
                    "id": 501,
                    "main": "Rain"
                }
            ],
            "wind": {
                "deg": 355,
                "speed": 2.32
            }
        },
        {
            "clouds": {
                "all": 100
            },
            "dt": 1594360800,
            "dt_txt": "2020-07-10 06:00:00",
            "main": {
                "feels_like": 16.34,
                "grnd_level": 788,
                "humidity": 60,
                "pressure": 1020,
                "sea_level": 1020,
                "temp": 16.73,
                "temp_kf": 0,
                "temp_max": 16.73,
                "temp_min": 16.73
            },
            "rain": {
                "3h": 0.84
            },
            "sys": {
                "pod": "n"
            },
            "weather": [
                {
                    "description": "light rain",
                    "icon": "10n",
                    "id": 500,
                    "main": "Rain"
                }
            ],
            "wind": {
                "deg": 187,
                "speed": 0.22
            }
        },
        {
            "clouds": {
                "all": 100
            },
            "dt": 1594371600,
            "dt_txt": "2020-07-10 09:00:00",
            "main": {
                "feels_like": 15.02,
                "grnd_level": 786,
                "humidity": 60,
                "pressure": 1018,
                "sea_level": 1018,
                "temp": 16.28,
                "temp_kf": 0,
                "temp_max": 16.28,
                "temp_min": 16.28
            },
            "sys": {
                "pod": "n"
            },
            "weather": [
                {
                    "description": "overcast clouds",
                    "icon": "04n",
                    "id": 804,
                    "main": "Clouds"
                }
            ],
            "wind": {
                "deg": 41,
                "speed": 1.31
            }
        },
        {
            "clouds": {
                "all": 100
            },
            "dt": 1594382400,
            "dt_txt": "2020-07-10 12:00:00",
            "main": {
                "feels_like": 14.67,
                "grnd_level": 787,
                "humidity": 59,
                "pressure": 1019,
                "sea_level": 1019,
                "temp": 16.1,
                "temp_kf": 0,
                "temp_max": 16.1,
                "temp_min": 16.1
            },
            "sys": {
                "pod": "n"
            },
            "weather": [
                {
                    "description": "overcast clouds",
                    "icon": "04n",
                    "id": 804,
                    "main": "Clouds"
                }
            ],
            "wind": {
                "deg": 32,
                "speed": 1.4
            }
        },
        {
            "clouds": {
                "all": 100
            },
            "dt": 1594393200,
            "dt_txt": "2020-07-10 15:00:00",
            "main": {
                "feels_like": 16.33,
                "grnd_level": 789,
                "humidity": 49,
                "pressure": 1019,
                "sea_level": 1019,
                "temp": 18.35,
                "temp_kf": 0,
                "temp_max": 18.35,
                "temp_min": 18.35
            },
            "sys": {
                "pod": "d"
            },
            "weather": [
                {
                    "description": "overcast clouds",
                    "icon": "04d",
                    "id": 804,
                    "main": "Clouds"
                }
            ],
            "wind": {
                "deg": 16,
                "speed": 2.03
            }
        },
        {
            "clouds": {
                "all": 88
            },
            "dt": 1594404000,
            "dt_txt": "2020-07-10 18:00:00",
            "main": {
                "feels_like": 20.26,
                "grnd_level": 791,
                "humidity": 27,
                "pressure": 1017,
                "sea_level": 1017,
                "temp": 23.94,
                "temp_kf": 0,
                "temp_max": 23.94,
                "temp_min": 23.94
            },
            "sys": {
                "pod": "d"
            },
            "weather": [
                {
                    "description": "overcast clouds",
                    "icon": "04d",
                    "id": 804,
                    "main": "Clouds"
                }
            ],
            "wind": {
                "deg": 25,
                "speed": 3.31
            }
        },
        {
            "clouds": {
                "all": 80
            },
            "dt": 1594414800,
            "dt_txt": "2020-07-10 21:00:00",
            "main": {
                "feels_like": 21.48,
                "grnd_level": 791,
                "humidity": 22,
                "pressure": 1015,
                "sea_level": 1015,
                "temp": 26.63,
                "temp_kf": 0,
                "temp_max": 26.63,
                "temp_min": 26.63
            },
            "sys": {
                "pod": "d"
            },
            "weather": [
                {
                    "description": "broken clouds",
                    "icon": "04d",
                    "id": 803,
                    "main": "Clouds"
                }
            ],
            "wind": {
                "deg": 35,
                "speed": 5.25
            }
        }
    ],
    "message": 0
}